%!PS-Adobe-3.0 EPSF-3.0
%%Creator: cairo 1.15.10 (http://cairographics.org)
%%CreationDate: Thu Mar 22 15:46:55 2018
%%Pages: 1
%%DocumentData: Clean7Bit
%%LanguageLevel: 2
%%BoundingBox: 0 0 1122 981
%%EndComments
%%BeginProlog
50 dict begin
/q { gsave } bind def
/Q { grestore } bind def
/cm { 6 array astore concat } bind def
/w { setlinewidth } bind def
/J { setlinecap } bind def
/j { setlinejoin } bind def
/M { setmiterlimit } bind def
/d { setdash } bind def
/m { moveto } bind def
/l { lineto } bind def
/c { curveto } bind def
/h { closepath } bind def
/re { exch dup neg 3 1 roll 5 3 roll moveto 0 rlineto
      0 exch rlineto 0 rlineto closepath } bind def
/S { stroke } bind def
/f { fill } bind def
/f* { eofill } bind def
/n { newpath } bind def
/W { clip } bind def
/W* { eoclip } bind def
/BT { } bind def
/ET { } bind def
/BDC { mark 3 1 roll /BDC pdfmark } bind def
/EMC { mark /EMC pdfmark } bind def
/cairo_store_point { /cairo_point_y exch def /cairo_point_x exch def } def
/Tj { show currentpoint cairo_store_point } bind def
/TJ {
  {
    dup
    type /stringtype eq
    { show } { -0.001 mul 0 cairo_font_matrix dtransform rmoveto } ifelse
  } forall
  currentpoint cairo_store_point
} bind def
/cairo_selectfont { cairo_font_matrix aload pop pop pop 0 0 6 array astore
    cairo_font exch selectfont cairo_point_x cairo_point_y moveto } bind def
/Tf { pop /cairo_font exch def /cairo_font_matrix where
      { pop cairo_selectfont } if } bind def
/Td { matrix translate cairo_font_matrix matrix concatmatrix dup
      /cairo_font_matrix exch def dup 4 get exch 5 get cairo_store_point
      /cairo_font where { pop cairo_selectfont } if } bind def
/Tm { 2 copy 8 2 roll 6 array astore /cairo_font_matrix exch def
      cairo_store_point /cairo_font where { pop cairo_selectfont } if } bind def
/g { setgray } bind def
/rg { setrgbcolor } bind def
/d1 { setcachedevice } bind def
/cairo_data_source {
  CairoDataIndex CairoData length lt
    { CairoData CairoDataIndex get /CairoDataIndex CairoDataIndex 1 add def }
    { () } ifelse
} def
/cairo_flush_ascii85_file { cairo_ascii85_file status { cairo_ascii85_file flushfile } if } def
/cairo_image { image cairo_flush_ascii85_file } def
/cairo_imagemask { imagemask cairo_flush_ascii85_file } def
%%EndProlog
%%BeginSetup
%%EndSetup
%%Page: 1 1
%%BeginPageSetup
%%PageBoundingBox: 0 0 1122 981
%%EndPageSetup
q 0 0 1122 981 rectclip
1 0 0 -1 0 981 cm q
0 g
513.051 488.051 m 513.051 468.656 528.773 452.934 548.168 452.934 c 567.562
 452.934 583.285 468.656 583.285 488.051 c 583.285 507.445 567.562 523.168
 548.168 523.168 c 528.773 523.168 513.051 507.445 513.051 488.051 c h
513.051 488.051 m f
780.855 35.117 m 780.855 15.723 796.578 0 815.977 0 c 835.371 0 851.094
 15.723 851.094 35.117 c 851.094 54.512 835.371 70.234 815.977 70.234 c 
796.578 70.234 780.855 54.512 780.855 35.117 c h
780.855 35.117 m f
253.551 35.117 m 253.551 15.723 269.27 0 288.668 0 c 308.062 0 323.785 
15.723 323.785 35.117 c 323.785 54.512 308.062 70.234 288.668 70.234 c 269.27
 70.234 253.551 54.512 253.551 35.117 c h
253.551 35.117 m f
0 488.051 m 0 468.656 15.723 452.934 35.117 452.934 c 54.512 452.934 70.234
 468.656 70.234 488.051 c 70.234 507.445 54.512 523.168 35.117 523.168 c
 15.723 523.168 0 507.445 0 488.051 c h
0 488.051 m f
1051.301 488.051 m 1051.301 468.656 1067.023 452.934 1086.418 452.934 c
 1105.812 452.934 1121.535 468.656 1121.535 488.051 c 1121.535 507.445 1105.812
 523.168 1086.418 523.168 c 1067.023 523.168 1051.301 507.445 1051.301 488.051
 c h
1051.301 488.051 m f
10.290819 w
0 J
0 j
[] 0.0 d
4 M q 1 0 0 1 0 0 cm
839.141 61.441 m 1070.168 461.59 l S Q
q 1 0 0 1 0 0 cm
795.156 59.105 m 564.133 459.254 l S Q
q 1 0 0 1 0 0 cm
302.805 66.301 m 533.832 466.449 l S Q
q 1 0 0 1 0 0 cm
270.332 63 m 39.305 463.148 l S Q
251.48 945.633 m 251.48 926.238 267.203 910.516 286.598 910.516 c 305.996
 910.516 321.715 926.238 321.715 945.633 c 321.715 965.027 305.996 980.75
 286.598 980.75 c 267.203 980.75 251.48 965.027 251.48 945.633 c h
251.48 945.633 m f
q 1 0 0 1 0 0 cm
527.969 513.703 m 296.941 913.852 l S Q
3.776933 w
q 0.57735 1 -0.75 0.433013 0 0 cm
613.497 -267.396 m 613.497 -267.396 632.381 -293.839 651.265 -267.401 c
 670.152 -240.961 689.033 -267.399 689.033 -267.399 c S Q
q 0.57735 1 -0.75 0.433013 0 0 cm
689.033 -267.399 m 689.033 -267.399 707.918 -293.836 726.802 -267.398 c
 745.689 -240.958 764.573 -267.4 764.573 -267.4 c S Q
q 0.57735 1 -0.75 0.433013 0 0 cm
764.573 -267.4 m 764.573 -267.4 783.458 -293.837 802.342 -267.399 c 821.229
 -240.958 840.111 -267.397 840.111 -267.397 c S Q
q 0.57735 1 -0.75 0.433013 0 0 cm
840.111 -267.397 m 840.111 -267.397 858.997 -293.837 877.881 -267.399 c
 896.765 -240.962 915.65 -267.398 915.65 -267.398 c S Q
q 0.57735 1 -0.75 0.433013 0 0 cm
915.65 -267.398 m 915.65 -267.398 934.536 -293.838 953.421 -267.4 c 972.303
 -240.958 991.189 -267.399 991.189 -267.399 c S Q
q 0.57735 1 -0.75 0.433013 0 0 cm
991.189 -267.399 m 991.189 -267.399 1010.074 -293.835 1028.958 -267.397
 c 1047.842 -240.959 1066.729 -267.399 1066.729 -267.399 c S Q
780.855 945.633 m 780.855 926.238 796.578 910.516 815.977 910.516 c 835.371
 910.516 851.094 926.238 851.094 945.633 c 851.094 965.027 835.371 980.75
 815.977 980.75 c 796.578 980.75 780.855 965.027 780.855 945.633 c h
780.855 945.633 m f
Q Q
showpage
%%Trailer
end
%%EOF
