%!PS-Adobe-3.0 EPSF-3.0
%%Creator: cairo 1.15.10 (http://cairographics.org)
%%CreationDate: Thu Mar 22 15:46:37 2018
%%Pages: 1
%%DocumentData: Clean7Bit
%%LanguageLevel: 2
%%BoundingBox: 0 0 1122 1475
%%EndComments
%%BeginProlog
50 dict begin
/q { gsave } bind def
/Q { grestore } bind def
/cm { 6 array astore concat } bind def
/w { setlinewidth } bind def
/J { setlinecap } bind def
/j { setlinejoin } bind def
/M { setmiterlimit } bind def
/d { setdash } bind def
/m { moveto } bind def
/l { lineto } bind def
/c { curveto } bind def
/h { closepath } bind def
/re { exch dup neg 3 1 roll 5 3 roll moveto 0 rlineto
      0 exch rlineto 0 rlineto closepath } bind def
/S { stroke } bind def
/f { fill } bind def
/f* { eofill } bind def
/n { newpath } bind def
/W { clip } bind def
/W* { eoclip } bind def
/BT { } bind def
/ET { } bind def
/BDC { mark 3 1 roll /BDC pdfmark } bind def
/EMC { mark /EMC pdfmark } bind def
/cairo_store_point { /cairo_point_y exch def /cairo_point_x exch def } def
/Tj { show currentpoint cairo_store_point } bind def
/TJ {
  {
    dup
    type /stringtype eq
    { show } { -0.001 mul 0 cairo_font_matrix dtransform rmoveto } ifelse
  } forall
  currentpoint cairo_store_point
} bind def
/cairo_selectfont { cairo_font_matrix aload pop pop pop 0 0 6 array astore
    cairo_font exch selectfont cairo_point_x cairo_point_y moveto } bind def
/Tf { pop /cairo_font exch def /cairo_font_matrix where
      { pop cairo_selectfont } if } bind def
/Td { matrix translate cairo_font_matrix matrix concatmatrix dup
      /cairo_font_matrix exch def dup 4 get exch 5 get cairo_store_point
      /cairo_font where { pop cairo_selectfont } if } bind def
/Tm { 2 copy 8 2 roll 6 array astore /cairo_font_matrix exch def
      cairo_store_point /cairo_font where { pop cairo_selectfont } if } bind def
/g { setgray } bind def
/rg { setrgbcolor } bind def
/d1 { setcachedevice } bind def
/cairo_data_source {
  CairoDataIndex CairoData length lt
    { CairoData CairoDataIndex get /CairoDataIndex CairoDataIndex 1 add def }
    { () } ifelse
} def
/cairo_flush_ascii85_file { cairo_ascii85_file status { cairo_ascii85_file flushfile } if } def
/cairo_image { image cairo_flush_ascii85_file } def
/cairo_imagemask { imagemask cairo_flush_ascii85_file } def
%%EndProlog
%%BeginSetup
%%EndSetup
%%Page: 1 1
%%BeginPageSetup
%%PageBoundingBox: 0 0 1122 1475
%%EndPageSetup
q 0 0 1122 1475 rectclip
1 0 0 -1 0 1475 cm q
0 g
608.484 986.137 m 608.484 1005.531 592.762 1021.254 573.367 1021.254 c 
553.973 1021.254 538.25 1005.531 538.25 986.137 c 538.25 966.742 553.973
 951.02 573.367 951.02 c 592.762 951.02 608.484 966.742 608.484 986.137 
c h
608.484 986.137 m f
340.352 1439.07 m 340.352 1458.465 324.629 1474.188 305.234 1474.188 c 
285.84 1474.188 270.117 1458.465 270.117 1439.07 c 270.117 1419.676 285.84
 1403.953 305.234 1403.953 c 324.629 1403.953 340.352 1419.676 340.352 1439.07
 c h
340.352 1439.07 m f
869.152 1439.07 m 869.152 1458.465 853.43 1474.188 834.035 1474.188 c 814.641
 1474.188 798.918 1458.465 798.918 1439.07 c 798.918 1419.676 814.641 1403.953
 834.035 1403.953 c 853.43 1403.953 869.152 1419.676 869.152 1439.07 c h
869.152 1439.07 m f
1121.535 986.137 m 1121.535 1005.531 1105.812 1021.254 1086.418 1021.254
 c 1067.023 1021.254 1051.301 1005.531 1051.301 986.137 c 1051.301 966.742
 1067.023 951.02 1086.418 951.02 c 1105.812 951.02 1121.535 966.742 1121.535
 986.137 c h
1121.535 986.137 m f
70.234 986.137 m 70.234 1005.531 54.512 1021.254 35.117 1021.254 c 15.723
 1021.254 0 1005.531 0 986.137 c 0 966.742 15.723 951.02 35.117 951.02 c
 54.512 951.02 70.234 966.742 70.234 986.137 c h
70.234 986.137 m f
608.484 545.059 m 608.484 564.453 592.762 580.176 573.367 580.176 c 553.973
 580.176 538.25 564.453 538.25 545.059 c 538.25 525.664 553.973 509.941 
573.367 509.941 c 592.762 509.941 608.484 525.664 608.484 545.059 c h
608.484 545.059 m f
608.484 35.117 m 608.484 54.512 592.762 70.234 573.367 70.234 c 553.973
 70.234 538.25 54.512 538.25 35.117 c 538.25 15.723 553.973 0 573.367 0 
c 592.762 0 608.484 15.723 608.484 35.117 c h
608.484 35.117 m f
1121.535 280.547 m 1121.535 299.941 1105.812 315.664 1086.418 315.664 c
 1067.023 315.664 1051.301 299.941 1051.301 280.547 c 1051.301 261.152 1067.023
 245.43 1086.418 245.43 c 1105.812 245.43 1121.535 261.152 1121.535 280.547
 c h
1121.535 280.547 m f
10.290819 w
0 J
0 j
[] 0.0 d
4 M q 1 0 0 1 0 0 cm
282.395 1412.746 m 51.367 1012.598 l S Q
q 1 0 0 1 0 0 cm
326.379 1415.082 m 557.402 1014.934 l S Q
q 1 0 0 1 0 0 cm
818.73 1407.887 m 587.707 1007.738 l S Q
q 1 0 0 1 0 0 cm
851.203 1411.188 m 1082.23 1011.039 l S Q
q 1 0 0 1 0 0 cm
573.23 999.371 m 573.23 537.32 l S Q
q 1 0 0 1 0 0 cm
573.23 519.609 m 573.23 57.559 l S Q
3.84722 w
q 1 -0.57735 0.433013 0.75 0 0 cm
213.283 891.659 m 213.283 891.659 232.522 864.73 251.755 891.66 c 270.993
 918.589 290.229 891.658 290.229 891.658 c S Q
q 1 -0.57735 0.433013 0.75 0 0 cm
290.229 891.658 m 290.229 891.658 309.463 864.73 328.701 891.659 c 347.937
 918.592 367.173 891.66 367.173 891.66 c S Q
q 1 -0.57735 0.433013 0.75 0 0 cm
367.173 891.66 m 367.173 891.66 386.409 864.729 405.645 891.662 c 424.883
 918.591 444.119 891.659 444.119 891.659 c S Q
q 1 -0.57735 0.433013 0.75 0 0 cm
444.119 891.659 m 444.119 891.659 463.353 864.731 482.591 891.66 c 501.824
 918.591 521.063 891.661 521.063 891.661 c S Q
q 1 -0.57735 0.433013 0.75 0 0 cm
521.063 891.661 m 521.063 891.661 540.299 864.73 559.532 891.66 c 578.77
 918.589 598.006 891.658 598.006 891.658 c S Q
q 1 -0.57735 0.433013 0.75 0 0 cm
598.006 891.658 m 598.006 891.658 617.241 864.73 636.478 891.659 c 655.715
 918.592 674.95 891.66 674.95 891.66 c S Q
Q Q
showpage
%%Trailer
end
%%EOF
